50
a b c d e f g h i j k l m n o p q r s t u v w x y z aa bb cc dd ee ff gg hh ii jj kk ll mm nn oo pp qq rr ss tt uu vv ww xx
0
0
3 bb oo q
3 gg l x
3 kk ll n
1 kk
3 ii l ll
1 kk
5 d jj o q w
2 gg j
0
3 h uu z
1 b
2 ff j
2 uu xx
2 tt ww
2 gg n
1 h
1 s
0
2 t xx
2 b o
0
3 l ll n
0
3 hh i mm
3 kk v vv
3 jj s tt
2 m ww
0
3 j kk xx
3 e f u
1 h
5 o qq r s t
1 gg
1 cc
4 bb o ss x
2 ss w
1 l
4 ff gg i jj
2 m pp
2 aa gg
2 ss vv
3 ee nn qq
3 cc h u
2 s w
3 c ww x
4 ii qq s uu
3 o uu vv
0
